<svg xmlns="http://www.w3.org/2000/svg" width="200" height="200" viewBox="0 0 200 200">
  <g id="Grupo_1864" data-name="Grupo 1864" transform="translate(-860 -360)">
    <circle id="Elipse_80" data-name="Elipse 80" cx="100" cy="100" r="100" transform="translate(860 360)" fill="red" opacity="0.15"/>
    <circle id="Elipse_81" data-name="Elipse 81" cx="81.5" cy="81.5" r="81.5" transform="translate(879 379)" fill="red" opacity="0.4"/>
    <path id="Caminho_7062" data-name="Caminho 7062" d="M60.436,0A60.436,60.436,0,1,1,0,60.436,60.436,60.436,0,0,1,60.436,0Z" transform="translate(899.598 399.598)" fill="red"/>
    <text id="_" data-name="!" transform="translate(960 493)" fill="#fff" font-size="83" font-family="OpenSans-Bold, Open Sans" font-weight="700"><tspan x="-11.875" y="0">!</tspan></text>
  </g>
</svg>
