<svg xmlns="http://www.w3.org/2000/svg" width="200.002" height="200.001" viewBox="0 0 200.002 200.001">
  <g id="Interrogação_S_fundo" data-name="Interrogação S fundo" transform="translate(-860 -358)">
    <path id="Exclusão_5" data-name="Exclusão 5" d="M17735,3529a99.526,99.526,0,0,1-55.91-17.079,100.281,100.281,0,0,1-36.229-44,99.874,99.874,0,0,1,9.219-94.834,100.29,100.29,0,0,1,44-36.231,99.866,99.866,0,0,1,94.836,9.22,100.3,100.3,0,0,1,36.232,44,99.863,99.863,0,0,1-9.221,94.835,100.305,100.305,0,0,1-44,36.232A99.37,99.37,0,0,1,17735,3529Zm-2.773-79.686a7.443,7.443,0,0,0-5.309,1.741,8.032,8.032,0,0,0,.039,10.237,7.3,7.3,0,0,0,5.27,1.8,7.1,7.1,0,0,0,5.188-1.844,7.886,7.886,0,0,0,.018-10.156A7.215,7.215,0,0,0,17732.225,3449.315Zm1.5-37.446a9.28,9.28,0,0,1,5.43,1.378,4.623,4.623,0,0,1,1.947,4.01,7.208,7.208,0,0,1-1.355,4.257,25.8,25.8,0,0,1-5.613,4.941,21.9,21.9,0,0,0-6.084,6.123,13.359,13.359,0,0,0-1.66,6.768v3h10.738v-2.435a6.865,6.865,0,0,1,1.033-3.93,23.963,23.963,0,0,1,4.93-4.377c3.758-2.682,6.348-5.137,7.7-7.3a14.27,14.27,0,0,0,2.027-7.7,13.143,13.143,0,0,0-4.928-10.7c-3.266-2.664-7.73-4.015-13.271-4.015a38.832,38.832,0,0,0-19.17,5.067l4.418,8.876C17725.027,3413.2,17729.691,3411.869,17733.723,3411.869Z" transform="translate(-16775 -2971)" fill="#ce3cea" opacity="0.15"/>
    <path id="Exclusão_4" data-name="Exclusão 4" d="M17716.5,3492a81.114,81.114,0,0,1-45.566-13.919,81.728,81.728,0,0,1-29.527-35.857,81.4,81.4,0,0,1,7.514-77.291,81.743,81.743,0,0,1,35.857-29.528,81.389,81.389,0,0,1,77.289,7.514,81.738,81.738,0,0,1,29.525,35.857,81.4,81.4,0,0,1-7.514,77.291,81.728,81.728,0,0,1-35.855,29.528A80.986,80.986,0,0,1,17716.5,3492Zm-3.279-61.685a7.4,7.4,0,0,0-5.307,1.747,8.024,8.024,0,0,0,.041,10.233,7.289,7.289,0,0,0,5.266,1.8,7.086,7.086,0,0,0,5.189-1.845,7.872,7.872,0,0,0,.02-10.148A7.212,7.212,0,0,0,17713.223,3430.313Zm1.5-37.444a9.352,9.352,0,0,1,5.432,1.376,4.634,4.634,0,0,1,1.943,4.016,7.171,7.171,0,0,1-1.357,4.252,25.568,25.568,0,0,1-5.609,4.945,21.847,21.847,0,0,0-6.08,6.119,13.371,13.371,0,0,0-1.662,6.767v3h10.738v-2.434a6.842,6.842,0,0,1,1.031-3.931,24.128,24.128,0,0,1,4.928-4.377c3.758-2.68,6.35-5.135,7.7-7.294a14.326,14.326,0,0,0,2.027-7.7,13.157,13.157,0,0,0-4.928-10.7c-3.266-2.661-7.73-4.011-13.27-4.011a38.793,38.793,0,0,0-19.172,5.065l4.418,8.875C17706.021,3394.2,17710.684,3392.869,17714.723,3392.869Z" transform="translate(-16756 -2952)" fill="#ce3cea" opacity="0.4"/>
    <path id="Exclusão_3" data-name="Exclusão 3" d="M17695.436,3449.871a60.26,60.26,0,1,1,23.523-4.749A60.057,60.057,0,0,1,17695.436,3449.871Zm-2.807-40.154a7.43,7.43,0,0,0-5.312,1.742,8.028,8.028,0,0,0,.041,10.236,7.315,7.315,0,0,0,5.271,1.8,7.1,7.1,0,0,0,5.188-1.84,7.885,7.885,0,0,0,.018-10.156A7.225,7.225,0,0,0,17692.629,3409.717Zm1.5-37.445a9.33,9.33,0,0,1,5.434,1.377,4.625,4.625,0,0,1,1.941,4.01,7.2,7.2,0,0,1-1.354,4.256,25.8,25.8,0,0,1-5.615,4.946,21.89,21.89,0,0,0-6.078,6.118,13.359,13.359,0,0,0-1.662,6.769v3h10.738v-2.433a6.814,6.814,0,0,1,1.035-3.93,23.749,23.749,0,0,1,4.924-4.376c3.768-2.694,6.357-5.148,7.7-7.295a14.28,14.28,0,0,0,2.029-7.7,13.151,13.151,0,0,0-4.93-10.7c-3.262-2.664-7.727-4.015-13.27-4.015a38.777,38.777,0,0,0-19.17,5.067l4.42,8.876C17685.432,3373.607,17690.094,3372.272,17694.125,3372.272Z" transform="translate(-16735.402 -2931.402)" fill="#ce3cea"/>
  </g>
</svg>
