<svg xmlns="http://www.w3.org/2000/svg" xmlns:xlink="http://www.w3.org/1999/xlink" width="225" height="225" viewBox="0 0 225 225">
  <defs>
    <clipPath id="clip-path">
      <circle id="profile-3" cx="112.5" cy="112.5" r="112.5" transform="translate(439 337.999)" fill="#fff"/>
    </clipPath>
  </defs>
  <g id="Perfil" transform="translate(-439 -337.999)">
    <circle id="profile-3-2" data-name="profile-3" cx="112.5" cy="112.5" r="112.5" transform="translate(439 337.999)" fill="#fff"/>
    <g id="Grupo_de_máscara_1727" data-name="Grupo de máscara 1727" clip-path="url(#clip-path)">
      <g id="user_1_" data-name="user (1)" transform="translate(469.641 366.118)">
        <path id="Caminho_8715" data-name="Caminho 8715" d="M85.666,94.838A45.882,45.882,0,0,0,119.2,80.945a45.881,45.881,0,0,0,13.891-33.528A45.889,45.889,0,0,0,119.194,13.89,45.893,45.893,0,0,0,85.666,0,45.881,45.881,0,0,0,52.139,13.891,45.884,45.884,0,0,0,38.246,47.417,45.881,45.881,0,0,0,52.14,80.947,45.893,45.893,0,0,0,85.666,94.838Zm0,0" transform="translate(-4.78 0)" fill="#e1dede"/>
        <path id="Caminho_8716" data-name="Caminho 8716" d="M163.859,164.973a117.12,117.12,0,0,0-1.6-12.44,98.013,98.013,0,0,0-3.06-12.508,61.78,61.78,0,0,0-5.142-11.665,44.019,44.019,0,0,0-7.754-10.1,34.186,34.186,0,0,0-11.138-7,38.493,38.493,0,0,0-14.219-2.573c-2.01,0-3.953.825-7.707,3.268-2.31,1.507-5.012,3.249-8.029,5.176a46,46,0,0,1-10.388,4.577,40.339,40.339,0,0,1-25.412,0,45.9,45.9,0,0,1-10.381-4.575c-2.988-1.909-5.691-3.652-8.036-5.179-3.749-2.444-5.694-3.268-7.7-3.268a38.443,38.443,0,0,0-14.217,2.576,34.157,34.157,0,0,0-11.139,7,44.025,44.025,0,0,0-7.751,10.1,61.9,61.9,0,0,0-5.142,11.667,98.248,98.248,0,0,0-3.058,12.506,116.713,116.713,0,0,0-1.6,12.445C.132,168.745,0,172.655,0,176.6c0,10.277,3.267,18.6,9.709,24.733,6.363,6.055,14.782,9.127,25.02,9.127h94.8c10.238,0,18.654-3.07,25.018-9.127,6.444-6.131,9.711-14.453,9.711-24.735,0-3.967-.135-7.88-.4-11.629Zm0,0" transform="translate(0 -13.583)" fill="#e1dede"/>
      </g>
    </g>
  </g>
</svg>
